…
- `gdal_driver_names()`: a character vector of short driver names.

## See also

[`gdal_vector_driver_opts()`](http://docs.jimbrig.com/gdalvector/reference/gdal_vector_driver_opts.md),
[`gdal_vector_driver_capabilities()`](http://docs.jimbrig.com/gdalvector/reference/gdal_vector_driver_capabilities.md)

## Examples

``` r
gdal_drivers()
#> # A tibble: 216 × 14
#>    driver short_name long_name extensions is_vector is_raster is_multidim_raster
#>    <chr>  <chr>      <chr>     <list>     <lgl>     <lgl>     <lgl>             
#>  1 VRT    VRT        Virtual … <chr [1]>  FALSE     TRUE      TRUE              
#>  2 DERIV… DERIVED    Derived … <chr [0]>  FALSE     TRUE      FALSE             
#>  3 GTiff  GTiff      GeoTIFF   <chr [2]>  FALSE     TRUE      FALSE             
#>  4 COG    COG        Cloud op… <chr [2]>  FALSE     TRUE      FALSE             
#>  5 NITF   NITF       National… <chr [1]>  FALSE     TRUE      FALSE             
#>  6 RPFTOC RPFTOC     Raster P… <chr [1]>  FALSE     TRUE      FALSE             
#>  7 ECRGT… ECRGTOC    ECRG TOC… <chr [1]>  FALSE     TRUE      FALSE             
#>  8 HFA    HFA        Erdas Im… <chr [1]>  FALSE     TRUE      FALSE             
#>  9 SAR_C… SAR_CEOS   CEOS SAR… <chr [0]>  FALSE     TRUE      FALSE             
#> 10 CEOS   CEOS       CEOS Ima… <chr [0]>  FALSE     TRUE      FALSE             
#> # ℹ 206 more rows
#> # ℹ 7 more variables: is_geography_network <lgl>, read_write <chr>,
#> #   supports_vsi <lgl>, supports_subdatasets <lgl>,
#> #   supports_multiple_layers <lgl>, supports_field_domains <lgl>,
#> #   sql_dialects <list>
…
